"VD17 expression","GND expression","GND ID"
"Augustae Vindelicorum ad S. Annam","Jesuitenkolleg (Augsburg)","5091740-7"
"Collegium Philosophicum ad S. Annam, Augsburg","Jesuitenkolleg (Augsburg)","5091740-7"
"Gymnasium ad S. Salvatoris","Jesuitenkolleg (Augsburg)","5091740-7"
"Gymnasium ad S. Salvatoris Augsburg","Jesuitenkolleg (Augsburg)","5091740-7"
"Gymnasium Augsburg","Jesuitenkolleg (Augsburg)","5091740-7"
"Gymnasium S. Salvatoris Augsburg","Jesuitenkolleg (Augsburg)","5091740-7"
"Gymnasium St. Anna, Augsburg","Jesuitenkolleg (Augsburg)","5091740-7"
"Jesuitenkolleg (Augsburg)","Jesuitenkolleg (Augsburg)","5091740-7"
"Kloster St. Anna, Augsburg","Jesuitenkolleg (Augsburg)","5091740-7"
"Lyceum Augustanum","Jesuitenkolleg (Augsburg)","5091740-7"
"Lyceum S. Salvatoris Augsburg","Jesuitenkolleg (Augsburg)","5091740-7"
"Lyceum S. Salvatoris Augustae Vindel","Jesuitenkolleg (Augsburg)","5091740-7"
"Lyceum S. Salvatoris Augustanum","Jesuitenkolleg (Augsburg)","5091740-7"
"Lyceum S. Salvatoris, Augsburg","Jesuitenkolleg (Augsburg)","5091740-7"
"S. Anna, Augsburg","Jesuitenkolleg (Augsburg)","5091740-7"
"S. Salvatoris Lyceum Augusanum","Jesuitenkolleg (Augsburg)","5091740-7"
"S. Salvatoris Lyceum Augustanum","Jesuitenkolleg (Augsburg)","5091740-7"
"Sankt Anna, Augsburg","Jesuitenkolleg (Augsburg)","5091740-7"
